^C:\USERS\ERIC KIRSCHENMANN\DOCUMENTS\VISUAL STUDIO 2012\PROJECTS\CLASSWORK\DEBUG\MAIN.OBJ
C:\USERS\ERIC KIRSCHENMANN\DOCUMENTS\VISUAL STUDIO 2012\PROJECTS\CLASSWORK\DEBUG\ASM_PROJECT.ILK
C:\USERS\ERIC KIRSCHENMANN\DOCUMENTS\VISUAL STUDIO 2012\PROJECTS\CLASSWORK\DEBUG\ASM_PROJECT.EXE
C:\USERS\ERIC KIRSCHENMANN\DOCUMENTS\VISUAL STUDIO 2012\PROJECTS\CLASSWORK\DEBUG\ASM_PROJECT.PDB
^C:\USERS\ERIC KIRSCHENMANN\DOCUMENTS\VISUAL STUDIO 2012\PROJECTS\PROJECT 2\Q1\DEBUG\MAIN.OBJ
C:\USERS\ERIC KIRSCHENMANN\DOCUMENTS\VISUAL STUDIO 2012\PROJECTS\PROJECT 2\Q1\DEBUG\ASM_PROJECT.ILK
C:\USERS\ERIC KIRSCHENMANN\DOCUMENTS\VISUAL STUDIO 2012\PROJECTS\PROJECT 2\Q1\DEBUG\ASM_PROJECT.EXE
C:\USERS\ERIC KIRSCHENMANN\DOCUMENTS\VISUAL STUDIO 2012\PROJECTS\PROJECT 2\Q1\DEBUG\ASM_PROJECT.PDB
^C:\USERS\ERIC KIRSCHENMANN\DOCUMENTS\VISUAL STUDIO 2012\PROJECTS\PROJECT 2\Q3\DEBUG\MAIN.OBJ
C:\USERS\ERIC KIRSCHENMANN\DOCUMENTS\VISUAL STUDIO 2012\PROJECTS\PROJECT 2\Q3\DEBUG\ASM_PROJECT.ILK
C:\USERS\ERIC KIRSCHENMANN\DOCUMENTS\VISUAL STUDIO 2012\PROJECTS\PROJECT 2\Q3\DEBUG\ASM_PROJECT.EXE
C:\USERS\ERIC KIRSCHENMANN\DOCUMENTS\VISUAL STUDIO 2012\PROJECTS\PROJECT 2\Q3\DEBUG\ASM_PROJECT.PDB
