^C:\USERS\ERIC KIRSCHENMANN\DOCUMENTS\VISUAL STUDIO 2012\PROJECTS\PA1_GRISSOM\Q4\DEBUG\MAIN.OBJ
C:\USERS\ERIC KIRSCHENMANN\DOCUMENTS\VISUAL STUDIO 2012\PROJECTS\PA1_GRISSOM\Q4\DEBUG\ASM_PROJECT.ILK
C:\USERS\ERIC KIRSCHENMANN\DOCUMENTS\VISUAL STUDIO 2012\PROJECTS\PA1_GRISSOM\Q4\DEBUG\ASM_PROJECT.EXE
C:\USERS\ERIC KIRSCHENMANN\DOCUMENTS\VISUAL STUDIO 2012\PROJECTS\PA1_GRISSOM\Q4\DEBUG\ASM_PROJECT.PDB
